<svg width="57" height="58" viewBox="0 0 57 58" fill="none" xmlns="http://www.w3.org/2000/svg">
<mask id="path-1-inside-1" fill="white">
<rect x="0.0554199" y="0.618286" width="25.6849" height="25.6849" rx="2"/>
</mask>
<rect x="0.0554199" y="0.618286" width="25.6849" height="25.6849" rx="2" stroke="#474B5A" stroke-width="6" mask="url(#path-1-inside-1)"/>
<mask id="path-2-inside-2" fill="white">
<rect x="30.7762" y="0.618286" width="25.6849" height="25.6849" rx="2"/>
</mask>
<rect x="30.7762" y="0.618286" width="25.6849" height="25.6849" rx="2" stroke="#474B5A" stroke-width="6" mask="url(#path-2-inside-2)"/>
<mask id="path-3-inside-3" fill="white">
<rect x="0.0554199" y="31.339" width="25.6849" height="25.6849" rx="2"/>
</mask>
<rect x="0.0554199" y="31.339" width="25.6849" height="25.6849" rx="2" stroke="#474B5A" stroke-width="6" mask="url(#path-3-inside-3)"/>
<rect x="32.2762" y="32.839" width="22.6849" height="22.6849" rx="11.3424" stroke="#474B5A" stroke-width="3"/>
</svg>
